419,OUT
1173,IN
1131,OUT
1124,OUT
1217,OUT
1222,OUT
2174,IN
2457,OUT
2637,OUT
2819,IN
2958,IN
3439,OUT
4129,IN
5543,OUT
5580,OUT
5949,IN
6059,IN
6111,IN
6819,IN
7122,IN
8621,IN
9396,OUT
10533,IN
10876,IN
11198,OUT
11548,IN
12338,IN
13720,IN
15077,IN
15565,OUT
18032,IN
20369,IN
20376,IN
22850,IN
22887,IN
26771,OUT
37400,IN
37436,IN
37505,IN
41864,OUT
41964,OUT
48367,IN
48392,IN
66883,IN
66886,IN
75327,OUT
75359,OUT
87911,IN
88495,IN
89429,IN
90268,IN
90275,IN
91001,IN
91038,IN
92049,OUT
93959,IN
93995,IN
94064,IN
94725,OUT
95705,IN
96373,IN
96376,IN
96719,OUT
97370,IN
97948,IN
97985,IN
99013,OUT
100181,IN
100234,IN
101056,IN
101788,IN
102708,OUT
103799,OUT
104743,IN
105511,IN
107072,IN
107792,OUT
108877,IN
109611,IN
109657,IN
109658,IN
110234,OUT
110278,OUT
110352,OUT
111464,IN
111477,IN
112469,IN
112952,IN
112984,IN
113606,IN
114335,IN
115110,IN
116143,OUT
116404,OUT
116393,IN
116506,OUT
117289,IN
118135,IN
118863,IN
118922,OUT
119925,OUT
120666,IN
121720,IN
122340,IN
122363,IN
122745,IN
122760,IN
122792,OUT
123536,OUT
123540,OUT
124128,OUT
124705,OUT
125616,IN
125629,IN
126219,OUT
127100,OUT
127105,OUT
127967,OUT
128748,IN
128968,OUT
129389,OUT
130041,IN
130142,IN
132302,IN
133253,IN
134282,OUT
134943,OUT
135697,OUT
136575,OUT
136646,OUT
136653,OUT
137196,IN
