440,OUT
1180,OUT
1200,OUT
1250,OUT
1250,OUT
2160,IN
2470,OUT
2650,OUT
2800,IN
2930,IN
3000,IN
3480,OUT
4050,IN
5560,OUT
5600,OUT
5900,IN
6040,IN
6070,IN
6800,IN
7100,IN
8560,IN
9440,OUT
9610,IN
9640,OUT
10510,IN
10850,IN
11210,OUT
11530,IN
12320,IN
13700,IN
15060,IN
15580,OUT
17980,IN
20290,IN
20340,IN
22820,IN
22830,IN
26640,IN
26800,OUT
37370,IN
37380,IN
37450,IN
41890,OUT
41950,OUT
41990,OUT
48340,IN
48350,IN
66860,IN
66860,IN
75340,OUT
75370,OUT
87890,IN
88470,IN
89380,IN
90180,IN
90240,IN
90970,IN
90990,IN
91920,IN
92080,OUT
93930,IN
93940,IN
94010,IN
94740,OUT
94850,OUT
95650,IN
96350,IN
96350,IN
96730,OUT
97350,IN
97930,IN
97960,IN
99040,OUT
100100,IN
100110,IN
101020,IN
101690,IN
102750,OUT
103860,OUT
104720,IN
105490,IN
107050,IN
107820,OUT
108740,IN
109560,IN
109600,IN
109630,IN
110260,OUT
110290,OUT
110370,OUT
111430,IN
111450,IN
112380,IN
112930,IN
112940,IN
113540,IN
114280,IN
115080,IN
116370,OUT
116470,OUT
116470,OUT
116530,OUT
117260,IN
118060,IN
118910,OUT
118950,OUT
120010,OUT
120600,IN
121670,IN
122270,IN
122310,IN
122720,IN
122730,IN
122820,OUT
123560,OUT
123570,OUT
124150,OUT
124720,OUT
125560,IN
125600,IN
126230,OUT
127140,OUT
127200,OUT
127990,OUT
128730,IN
128980,OUT
129410,OUT
130030,IN
130110,IN
130300,OUT
132230,IN
133120,IN
133190,IN
134320,OUT
134990,OUT
135710,OUT
136620,OUT
136670,OUT
136670,OUT
137170,IN
